{
  "actors": [
    {
      "id": "5030a35d-c52a-47b5-b14e-dcbc2177f711",
      "text": "Espetador",
      "type": "istar.Role",
      "x": 1019,
      "y": 364,
      "customProperties": {
        "Description": ""
      },
      "nodes": [
        {
          "id": "51fada58-4736-4f5a-a6ca-095f556ab8fa",
          "text": "Bilhete Comprado",
          "type": "istar.Goal",
          "x": 1264,
          "y": 447,
          "customProperties": {
            "Description": ""
          }
        },
        {
          "id": "d369d8e2-3c89-4554-8e60-d8d9438de444",
          "text": "Espetáculo encontrado",
          "type": "istar.Goal",
          "x": 1092,
          "y": 520,
          "customProperties": {
            "Description": ""
          }
        },
        {
          "id": "fd2f1395-c7b2-46ac-bab1-bc97d836340e",
          "text": "Pagamento autorizado",
          "type": "istar.Goal",
          "x": 1417,
          "y": 511,
          "customProperties": {
            "Description": ""
          }
        },
        {
          "id": "042685a6-ba2c-476e-952d-71a2fd54b690",
          "text": "Procurar o espetáculo",
          "type": "istar.Task",
          "x": 1026,
          "y": 593,
          "customProperties": {
            "Description": ""
          }
        },
        {
          "id": "4b0756eb-9f2e-415f-8d29-837a57051266",
          "text": "Lugar escolhido",
          "type": "istar.Goal",
          "x": 1257,
          "y": 510,
          "customProperties": {
            "Description": ""
          }
        },
        {
          "id": "1b136978-ae63-4787-aae3-6b2bfcc0e7a9",
          "text": "Efetuar o pagamento",
          "type": "istar.Task",
          "x": 1303,
          "y": 589,
          "customProperties": {
            "Description": ""
          }
        },
        {
          "id": "7f245c34-c3b4-41e9-b55d-dbf881b5e312",
          "text": "Ver fatura no email",
          "type": "istar.Task",
          "x": 1560,
          "y": 676,
          "customProperties": {
            "Description": ""
          }
        },
        {
          "id": "7f791761-499d-4f99-8550-51b2bcf9bb66",
          "text": "Confirmação recebida",
          "type": "istar.Goal",
          "x": 1560,
          "y": 593,
          "customProperties": {
            "Description": ""
          }
        },
        {
          "id": "2200a110-1feb-4367-904c-b220da4044ab",
          "text": "Dúvidas esclarecidas",
          "type": "istar.Goal",
          "x": 1205,
          "y": 375,
          "customProperties": {
            "Description": ""
          }
        },
        {
          "id": "17e057ab-352a-45fe-ad91-ae5da1dfd95d",
          "text": "Contactar o suporte",
          "type": "istar.Task",
          "x": 1344,
          "y": 371,
          "customProperties": {
            "Description": ""
          }
        },
        {
          "id": "46a65b8b-6054-464d-865c-559ec094d5de",
          "text": "Abrir link para o espetáculo",
          "type": "istar.Task",
          "x": 1126,
          "y": 593,
          "customProperties": {
            "Description": ""
          }
        },
        {
          "id": "af4fde85-de5a-4f56-86c1-11299c4c1550",
          "text": "Fácil pesquisa",
          "type": "istar.Quality",
          "x": 1024,
          "y": 654,
          "customProperties": {
            "Description": ""
          }
        },
        {
          "id": "11cb4a3f-bd88-461e-ad4c-dd406f6de313",
          "text": "Aceder ao portefólio",
          "type": "istar.Task",
          "x": 1132,
          "y": 745,
          "customProperties": {
            "Description": ""
          }
        },
        {
          "id": "43a85846-b6c0-4b85-ad7e-3f3eaf850ed0",
          "text": "Ver bilhetes comprados",
          "type": "istar.Goal",
          "x": 1019,
          "y": 745,
          "customProperties": {
            "Description": ""
          }
        },
        {
          "id": "1276f5db-8b04-42b4-8674-68d5de64c53e",
          "text": "Garantia de compra",
          "type": "istar.Quality",
          "x": 1560,
          "y": 488,
          "customProperties": {
            "Description": ""
          }
        },
        {
          "id": "94e0e481-9651-4e80-8204-3fc43bf0b140",
          "text": "MBWay",
          "type": "istar.Resource",
          "x": 1204,
          "y": 665,
          "customProperties": {
            "Description": ""
          }
        },
        {
          "id": "686779a7-38ab-4a7d-8be6-7e8dfced9e7c",
          "text": "PayPal",
          "type": "istar.Resource",
          "x": 1300,
          "y": 665,
          "customProperties": {
            "Description": ""
          }
        },
        {
          "id": "a13c5263-c73b-4eed-bed3-bbe717a67adf",
          "text": "Cartão de crédito/débito",
          "type": "istar.Resource",
          "x": 1396,
          "y": 665,
          "customProperties": {
            "Description": ""
          }
        }
      ]
    },
    {
      "id": "ef17494c-c2ac-4443-9ec3-f1f027854bf6",
      "text": "Gestor da Sala de Espetáculos",
      "type": "istar.Role",
      "x": 432,
      "y": 374,
      "customProperties": {
        "Description": ""
      },
      "nodes": [
        {
          "id": "d5790832-0037-4a17-bd01-cb25fe03b351",
          "text": "Evento criado",
          "type": "istar.Goal",
          "x": 891,
          "y": 374,
          "customProperties": {
            "Description": ""
          }
        },
        {
          "id": "28443267-01d0-4083-a3e8-d2af429ea0e7",
          "text": "Sala configurada",
          "type": "istar.Goal",
          "x": 604,
          "y": 496,
          "customProperties": {
            "Description": ""
          }
        },
        {
          "id": "f5fa1a55-ef44-4492-b4bb-84ef92a7eedb",
          "text": "Tipo de bilhetes e preço definidos",
          "type": "istar.Goal",
          "x": 887,
          "y": 490,
          "customProperties": {
            "Description": ""
          }
        },
        {
          "id": "77b2280f-3466-4a77-af12-95caa3e3b0a8",
          "text": "Informações do evento definidas",
          "type": "istar.Goal",
          "x": 1154,
          "y": 487,
          "customProperties": {
            "Description": ""
          }
        },
        {
          "id": "c3df1858-7d39-4493-9b1f-1c111b9e7d32",
          "text": "Bilhetes vendidos consultados",
          "type": "istar.Goal",
          "x": 484,
          "y": 780,
          "customProperties": {
            "Description": ""
          }
        },
        {
          "id": "14b68359-3340-4a94-8002-d71057842b8f",
          "text": "Estatísticas consultadas",
          "type": "istar.Goal",
          "x": 482,
          "y": 717,
          "customProperties": {
            "Description": ""
          }
        },
        {
          "id": "568ffae5-c634-4d21-9651-f7e1862bdf5a",
          "text": "Estatísticas gerais consultadas",
          "type": "istar.Goal",
          "x": 750,
          "y": 765,
          "customProperties": {
            "Description": ""
          }
        },
        {
          "id": "890383d8-6d81-4210-b5e5-b336b6e80df2",
          "text": "Média de lotação mensal vista",
          "type": "istar.Goal",
          "x": 647,
          "y": 853,
          "customProperties": {
            "Description": ""
          }
        },
        {
          "id": "13d66f7a-95b1-42ac-b75e-cd5b59b2254e",
          "text": "Histórico de últimos espetáculos consultado",
          "type": "istar.Goal",
          "x": 751,
          "y": 847,
          "customProperties": {
            "Description": ""
          }
        },
        {
          "id": "cd39c513-36dc-4105-9474-dfbd5827381a",
          "text": "Receitas mensais consultadas",
          "type": "istar.Goal",
          "x": 857,
          "y": 850,
          "customProperties": {
            "Description": ""
          }
        },
        {
          "id": "765d9a1c-8837-4c0a-9f73-802d7f042a60",
          "text": "Lugares reservados geridos",
          "type": "istar.Goal",
          "x": 1042,
          "y": 764,
          "customProperties": {
            "Description": ""
          }
        },
        {
          "id": "f3167f0b-1c4e-4e6b-9190-cedd9974f584",
          "text": "Lucros do evento recebidos",
          "type": "istar.Goal",
          "x": 1257,
          "y": 762,
          "customProperties": {
            "Description": ""
          }
        },
        {
          "id": "1b01445f-604e-4b5a-9fcb-665e7b9a1a91",
          "text": "Selecionar um espetáculo",
          "type": "istar.Task",
          "x": 486,
          "y": 850,
          "customProperties": {
            "Description": ""
          }
        },
        {
          "id": "2aafe392-cafe-4264-946c-35f0bb22db35",
          "text": "Procurar um espetáculo",
          "type": "istar.Task",
          "x": 446,
          "y": 910,
          "customProperties": {
            "Description": ""
          }
        },
        {
          "id": "3a32baa4-7755-4328-bc33-1eb6b8246bc5",
          "text": "Pesquisa fácil",
          "type": "istar.Quality",
          "x": 450,
          "y": 985,
          "customProperties": {
            "Description": ""
          }
        },
        {
          "id": "23ef9770-48a9-4000-9e96-67b0eb240fcf",
          "text": "Abrir link para um espetáculo",
          "type": "istar.Task",
          "x": 546,
          "y": 909,
          "customProperties": {
            "Description": ""
          }
        },
        {
          "id": "2ded19b3-32d0-4706-bfc4-be8f0e933953",
          "text": "Dúvidas esclarecidas",
          "type": "istar.Goal",
          "x": 997,
          "y": 995,
          "customProperties": {
            "Description": ""
          }
        },
        {
          "id": "fb554703-f95a-45e9-9fe2-97aefc140d88",
          "text": "Contactar o suporte",
          "type": "istar.Task",
          "x": 1127,
          "y": 995,
          "customProperties": {
            "Description": ""
          }
        },
        {
          "id": "c8916f6b-7430-43c9-826e-9e95e7ced993",
          "text": "Layout escolhido",
          "type": "istar.Goal",
          "x": 495,
          "y": 580,
          "customProperties": {
            "Description": ""
          }
        },
        {
          "id": "cd16f66f-046c-4b19-ad7a-0c12a866c35e",
          "text": "Escolher de um pré-definido",
          "type": "istar.Task",
          "x": 432,
          "y": 640,
          "customProperties": {
            "Description": ""
          }
        },
        {
          "id": "77863b35-04ab-41a2-ab6f-03f03ecf14ed",
          "text": "Criar um novo layout",
          "type": "istar.Task",
          "x": 541,
          "y": 641,
          "customProperties": {
            "Description": ""
          }
        },
        {
          "id": "fff116f9-8032-4153-9883-c6d8b3061eca",
          "text": "Definir a lotação",
          "type": "istar.Task",
          "x": 600,
          "y": 579,
          "customProperties": {
            "Description": ""
          }
        },
        {
          "id": "1030ef35-cc95-4737-a52c-28e9f02b487d",
          "text": "Escolher lugares pré-reservados",
          "type": "istar.Task",
          "x": 702,
          "y": 579,
          "customProperties": {
            "Description": ""
          }
        },
        {
          "id": "b6335ff9-fad9-4cfb-9b4f-a3f48077c80d",
          "text": "Definir que tipos de bilhetes existem",
          "type": "istar.Task",
          "x": 824,
          "y": 574,
          "customProperties": {
            "Description": ""
          }
        },
        {
          "id": "ff066f99-34b4-493a-8d6e-af6d2b058189",
          "text": "Definir os preços para cada tipo",
          "type": "istar.Task",
          "x": 941,
          "y": 578,
          "customProperties": {
            "Description": ""
          }
        },
        {
          "id": "a811a96b-e5e9-48ea-8716-453d87b463ce",
          "text": "Data e hora definidas",
          "type": "istar.Goal",
          "x": 1060,
          "y": 578,
          "customProperties": {
            "Description": ""
          }
        },
        {
          "id": "0a1b5361-2648-4902-8bb3-26e56f3a546c",
          "text": "Adicionar descrição",
          "type": "istar.Task",
          "x": 1157,
          "y": 577,
          "customProperties": {
            "Description": ""
          }
        },
        {
          "id": "d7212cdf-d4a2-44ee-bf71-1951e3d7ffc2",
          "text": "Artista escolhido",
          "type": "istar.Goal",
          "x": 1259,
          "y": 577,
          "customProperties": {
            "Description": ""
          }
        },
        {
          "id": "06865706-b5f9-44b8-92d4-cf818ff0f4b4",
          "text": "Selecionar data no calendário",
          "type": "istar.Task",
          "x": 1058,
          "y": 648,
          "customProperties": {
            "Description": ""
          }
        },
        {
          "id": "3200728b-4f29-4c19-88e7-61b52b0507dd",
          "text": "Selecionar artista da lista",
          "type": "istar.Task",
          "x": 1257,
          "y": 644,
          "customProperties": {
            "Description": ""
          }
        },
        {
          "id": "d1075743-540b-400c-8cbc-e622859b1047",
          "text": "Fácil preenchimento",
          "type": "istar.Quality",
          "x": 806,
          "y": 671,
          "customProperties": {
            "Description": ""
          }
        },
        {
          "id": "f0efcdbe-2dd2-45a7-97d8-969561e8d926",
          "text": "Selecionar lugar",
          "type": "istar.Task",
          "x": 1044,
          "y": 831,
          "customProperties": {
            "Description": ""
          }
        },
        {
          "id": "8aa900cd-44f3-40cd-beeb-72c192afbcef",
          "text": "Reservar lugar",
          "type": "istar.Task",
          "x": 993,
          "y": 887,
          "customProperties": {
            "Description": ""
          }
        },
        {
          "id": "3ebd3612-d524-4ebc-8e22-0f4baf37534c",
          "text": "Tornar lugar livre",
          "type": "istar.Task",
          "x": 1096,
          "y": 887,
          "customProperties": {
            "Description": ""
          }
        },
        {
          "id": "4635f975-822b-4afa-b8e9-aec762e52c7d",
          "text": "Garantia de pagamento",
          "type": "istar.Quality",
          "x": 1255,
          "y": 847,
          "customProperties": {
            "Description": ""
          }
        }
      ]
    },
    {
      "id": "4c003ef4-85d8-42df-95f3-5a952c0667c8",
      "text": "Entidade Bancária",
      "type": "istar.Agent",
      "x": 1072,
      "y": 551,
      "customProperties": {
        "Description": ""
      },
      "nodes": []
    },
    {
      "id": "caf6a775-c3d3-4bd3-986b-af2292821f6e",
      "text": "Servidor de Email",
      "type": "istar.Agent",
      "x": 964,
      "y": 551,
      "customProperties": {
        "Description": ""
      },
      "nodes": []
    },
    {
      "id": "46ac7cfe-5aba-4915-b9c4-abe32b081952",
      "text": "Sala-Z",
      "type": "istar.Agent",
      "x": 744,
      "y": 65,
      "customProperties": {
        "Description": ""
      },
      "nodes": [
        {
          "id": "391109cb-520c-4085-a2d5-ded8426337b4",
          "text": "Website user-friendly",
          "type": "istar.Goal",
          "x": 1224,
          "y": 196,
          "customProperties": {
            "Description": ""
          }
        },
        {
          "id": "ee3a9136-0c41-40f6-99a6-df1c3e3085d5",
          "text": "Acessos à base de dados otimizados",
          "type": "istar.Goal",
          "x": 960,
          "y": 235,
          "customProperties": {
            "Description": ""
          }
        },
        {
          "id": "42fe47ea-210d-4666-a032-f1e49c944c44",
          "text": "Pagamentos automáticos",
          "type": "istar.Goal",
          "x": 786,
          "y": 239,
          "customProperties": {
            "Description": ""
          }
        },
        {
          "id": "31fd0199-0c96-44e2-bb84-1dd5ddaf89b8",
          "text": "Usar trigger para enviar lucros ao gestor da sala de espetáculo automaticamente",
          "type": "istar.Task",
          "x": 767,
          "y": 309,
          "customProperties": {
            "Description": ""
          }
        },
        {
          "id": "daab9595-e15f-4fa2-a140-86172debf3be",
          "text": "Encriptar dados",
          "type": "istar.Task",
          "x": 984,
          "y": 109,
          "customProperties": {
            "Description": ""
          }
        },
        {
          "id": "dcf104ed-4014-4dde-85a4-baad3890ad9e",
          "text": "Segurança do utilizador",
          "type": "istar.Quality",
          "x": 834,
          "y": 96,
          "customProperties": {
            "Description": ""
          }
        },
        {
          "id": "5b8565b9-3e04-4ddf-83be-f8272d4759fe",
          "text": "Segurança do sistema",
          "type": "istar.Quality",
          "x": 1125,
          "y": 98,
          "customProperties": {
            "Description": ""
          }
        },
        {
          "id": "46117aaa-f8f0-4a31-a308-c07d50372605",
          "text": "Dar suporte",
          "type": "istar.Quality",
          "x": 1093,
          "y": 409,
          "customProperties": {
            "Description": ""
          }
        },
        {
          "id": "adc09f5e-91b7-4f52-93c4-d19f9df4e1d0",
          "text": "Terminar a sessão do utilizador",
          "type": "istar.Task",
          "x": 984,
          "y": 158,
          "customProperties": {
            "Description": ""
          }
        },
        {
          "id": "2acdd63a-85c6-4f51-b2bd-580e4270b61b",
          "text": "Desempenho",
          "type": "istar.Quality",
          "x": 908,
          "y": 402,
          "customProperties": {
            "Description": ""
          }
        },
        {
          "id": "dec82c73-4f26-414a-bde5-164dfe085a96",
          "text": "Acessar desnecessariamente a base de dados",
          "type": "istar.Task",
          "x": 893,
          "y": 306,
          "customProperties": {
            "Description": ""
          }
        },
        {
          "id": "fd512e97-5cc8-49e6-acdf-4561ce11f448",
          "text": "Usar triggers",
          "type": "istar.Task",
          "x": 1026,
          "y": 310,
          "customProperties": {
            "Description": ""
          }
        },
        {
          "id": "976a3e72-eb45-42a3-ae29-9e70d3fe56ab",
          "text": "Filtrar resultados",
          "type": "istar.Task",
          "x": 1163,
          "y": 257,
          "customProperties": {
            "Description": ""
          }
        },
        {
          "id": "f3cb08d6-5e10-41a9-9241-79d1a9283c38",
          "text": "Fácil pesquisa",
          "type": "istar.Quality",
          "x": 1166,
          "y": 329,
          "customProperties": {
            "Description": ""
          }
        },
        {
          "id": "1b3aa8b4-4d30-490f-a03f-e77a85b2afe7",
          "text": "Fácil preenchimento",
          "type": "istar.Quality",
          "x": 1291,
          "y": 309,
          "customProperties": {
            "Description": ""
          }
        },
        {
          "id": "0f618f59-b4dc-4065-9bac-3c477afa4bce",
          "text": "Fácil navegação",
          "type": "istar.Quality",
          "x": 1374,
          "y": 235,
          "customProperties": {
            "Description": ""
          }
        },
        {
          "id": "dfde0578-7fa4-44f5-9047-e3d84d2e726d",
          "text": "Evitar acesso a páginas restritas",
          "type": "istar.Task",
          "x": 1259,
          "y": 133,
          "customProperties": {
            "Description": ""
          }
        },
        {
          "id": "eb8c572a-5d9d-4a0c-880d-5566b9c8a911",
          "text": "Restringir o número de bilhetes por utilizador",
          "type": "istar.Task",
          "x": 1255,
          "y": 65,
          "customProperties": {
            "Description": ""
          }
        },
        {
          "id": "67f2dae4-7406-49c2-9760-8a79b2061e11",
          "text": "Escolher um servidor que suporte uma grande quantidade de pedidos simultaneos",
          "type": "istar.Task",
          "x": 1383,
          "y": 410,
          "customProperties": {
            "Description": ""
          }
        },
        {
          "id": "69d35781-9ad3-493a-9f90-3b20725b9c2f",
          "text": "Grande quantidade de pedidos atendida",
          "type": "istar.Goal",
          "x": 1236,
          "y": 416,
          "customProperties": {
            "Description": ""
          }
        },
        {
          "id": "b560f7ff-b3f8-40a7-9b7d-b033d78efa9a",
          "text": "Escalabilidade",
          "type": "istar.Quality",
          "x": 1410,
          "y": 312,
          "customProperties": {
            "Description": ""
          }
        }
      ]
    },
    {
      "id": "20c95a3d-78e5-4772-acf9-1775dfa4b9fb",
      "text": "Utilizador do Sala-Z",
      "type": "istar.Role",
      "x": 746,
      "y": 369,
      "customProperties": {
        "Description": ""
      },
      "nodes": []
    }
  ],
  "orphans": [],
  "dependencies": [
    {
      "id": "a7a70789-08f3-4bf1-86df-42e0ce587c3b",
      "text": "Confirmar pagamento",
      "type": "istar.Goal",
      "x": 1042,
      "y": 467,
      "customProperties": {
        "Description": ""
      },
      "source": "1b136978-ae63-4787-aae3-6b2bfcc0e7a9",
      "target": "4c003ef4-85d8-42df-95f3-5a952c0667c8"
    },
    {
      "id": "f600af98-537a-4afd-a503-3081244584b7",
      "text": "Receber fatura",
      "type": "istar.Goal",
      "x": 943,
      "y": 467,
      "customProperties": {
        "Description": ""
      },
      "source": "7f245c34-c3b4-41e9-b55d-dbf881b5e312",
      "target": "caf6a775-c3d3-4bd3-986b-af2292821f6e"
    },
    {
      "id": "75a0cb12-cc48-4772-a8dc-1a7a68d0e748",
      "text": "Evento",
      "type": "istar.Resource",
      "x": 723,
      "y": 451,
      "customProperties": {
        "Description": ""
      },
      "source": "042685a6-ba2c-476e-952d-71a2fd54b690",
      "target": "d5790832-0037-4a17-bd01-cb25fe03b351"
    },
    {
      "id": "bdc9b700-7df8-48c8-bca5-5a521b5882f5",
      "text": "Receber lucros",
      "type": "istar.Goal",
      "x": 460,
      "y": 92,
      "customProperties": {
        "Description": ""
      },
      "source": "f3167f0b-1c4e-4e6b-9190-cedd9974f584",
      "target": "31fd0199-0c96-44e2-bb84-1dd5ddaf89b8"
    },
    {
      "id": "286049bc-e673-4f98-b6a2-606eabcf7bac",
      "text": "Criar eventos",
      "type": "istar.Goal",
      "x": 561,
      "y": 196,
      "customProperties": {
        "Description": ""
      },
      "source": "46ac7cfe-5aba-4915-b9c4-abe32b081952",
      "target": "ef17494c-c2ac-4443-9ec3-f1f027854bf6"
    },
    {
      "id": "45b6fd52-ae03-4023-b2d8-db8b3dd91629",
      "text": "Fácil criar um evento",
      "type": "istar.Quality",
      "x": 528,
      "y": 132,
      "customProperties": {
        "Description": ""
      },
      "source": "ef17494c-c2ac-4443-9ec3-f1f027854bf6",
      "target": "46ac7cfe-5aba-4915-b9c4-abe32b081952"
    },
    {
      "id": "331bcb39-5ea0-4ce9-8134-28acab80773b",
      "text": "Fácil encontrar um espetáculo",
      "type": "istar.Quality",
      "x": 986,
      "y": 127,
      "customProperties": {
        "Description": ""
      },
      "source": "5030a35d-c52a-47b5-b14e-dcbc2177f711",
      "target": "46ac7cfe-5aba-4915-b9c4-abe32b081952"
    },
    {
      "id": "9b6e6774-e8ec-4ac4-9713-6d15fa304209",
      "text": "Comprar bilhetes",
      "type": "istar.Goal",
      "x": 930,
      "y": 192,
      "customProperties": {
        "Description": ""
      },
      "source": "5030a35d-c52a-47b5-b14e-dcbc2177f711",
      "target": "46ac7cfe-5aba-4915-b9c4-abe32b081952"
    },
    {
      "id": "a77953cf-5627-4d49-843f-145d62ce1cac",
      "text": "Segurança garantida",
      "type": "istar.Goal",
      "x": 789,
      "y": 230,
      "customProperties": {
        "Description": ""
      },
      "source": "20c95a3d-78e5-4772-acf9-1775dfa4b9fb",
      "target": "dcf104ed-4014-4dde-85a4-baad3890ad9e"
    },
    {
      "id": "c15bcd4f-4c0f-410c-b210-fa0db0111897",
      "text": "Receber suporte",
      "type": "istar.Goal",
      "x": 657,
      "y": 230,
      "customProperties": {
        "Description": ""
      },
      "source": "20c95a3d-78e5-4772-acf9-1775dfa4b9fb",
      "target": "46ac7cfe-5aba-4915-b9c4-abe32b081952"
    }
  ],
  "links": [
    {
      "id": "816ab8fb-00c4-4d50-87a7-977d95f483c9",
      "type": "istar.DependencyLink",
      "source": "c15bcd4f-4c0f-410c-b210-fa0db0111897",
      "target": "46ac7cfe-5aba-4915-b9c4-abe32b081952"
    },
    {
      "id": "709045e4-264b-450d-abd3-94e83746889a",
      "type": "istar.DependencyLink",
      "source": "20c95a3d-78e5-4772-acf9-1775dfa4b9fb",
      "target": "c15bcd4f-4c0f-410c-b210-fa0db0111897"
    },
    {
      "id": "0712c2b2-d847-48a7-bef3-21de823192be",
      "type": "istar.DependencyLink",
      "source": "a77953cf-5627-4d49-843f-145d62ce1cac",
      "target": "dcf104ed-4014-4dde-85a4-baad3890ad9e"
    },
    {
      "id": "e14bc21c-71b3-4d1f-aca2-3b6a13d1ea57",
      "type": "istar.DependencyLink",
      "source": "20c95a3d-78e5-4772-acf9-1775dfa4b9fb",
      "target": "a77953cf-5627-4d49-843f-145d62ce1cac"
    },
    {
      "id": "fab44451-94dc-4513-9d59-fdcc455f6577",
      "type": "istar.DependencyLink",
      "source": "9b6e6774-e8ec-4ac4-9713-6d15fa304209",
      "target": "46ac7cfe-5aba-4915-b9c4-abe32b081952"
    },
    {
      "id": "58aeb543-28a3-4b50-aff7-88eeaf6f9148",
      "type": "istar.DependencyLink",
      "source": "5030a35d-c52a-47b5-b14e-dcbc2177f711",
      "target": "9b6e6774-e8ec-4ac4-9713-6d15fa304209"
    },
    {
      "id": "569b61aa-c1a6-4201-80a2-44b410a5ecdd",
      "type": "istar.DependencyLink",
      "source": "331bcb39-5ea0-4ce9-8134-28acab80773b",
      "target": "46ac7cfe-5aba-4915-b9c4-abe32b081952"
    },
    {
      "id": "3fe8d3eb-0f53-4b31-9c5b-383b6001df0b",
      "type": "istar.DependencyLink",
      "source": "5030a35d-c52a-47b5-b14e-dcbc2177f711",
      "target": "331bcb39-5ea0-4ce9-8134-28acab80773b"
    },
    {
      "id": "e527bb33-95ad-4e32-b5d9-ddbeda31ebe3",
      "type": "istar.DependencyLink",
      "source": "45b6fd52-ae03-4023-b2d8-db8b3dd91629",
      "target": "46ac7cfe-5aba-4915-b9c4-abe32b081952"
    },
    {
      "id": "f0409db3-6e62-4b91-b785-5c7ff6c01e0b",
      "type": "istar.DependencyLink",
      "source": "ef17494c-c2ac-4443-9ec3-f1f027854bf6",
      "target": "45b6fd52-ae03-4023-b2d8-db8b3dd91629"
    },
    {
      "id": "c0f8a1f7-9807-42df-bbac-8b8456b54bc3",
      "type": "istar.DependencyLink",
      "source": "286049bc-e673-4f98-b6a2-606eabcf7bac",
      "target": "ef17494c-c2ac-4443-9ec3-f1f027854bf6"
    },
    {
      "id": "8a0c2fdf-d3b5-4aba-be01-a1a3301d627c",
      "type": "istar.DependencyLink",
      "source": "46ac7cfe-5aba-4915-b9c4-abe32b081952",
      "target": "286049bc-e673-4f98-b6a2-606eabcf7bac"
    },
    {
      "id": "c432865a-c5a3-4f21-8aa6-d5a405792eac",
      "type": "istar.DependencyLink",
      "source": "bdc9b700-7df8-48c8-bca5-5a521b5882f5",
      "target": "31fd0199-0c96-44e2-bb84-1dd5ddaf89b8"
    },
    {
      "id": "2527417c-61c6-44be-9a20-006fdc4943ce",
      "type": "istar.DependencyLink",
      "source": "f3167f0b-1c4e-4e6b-9190-cedd9974f584",
      "target": "bdc9b700-7df8-48c8-bca5-5a521b5882f5"
    },
    {
      "id": "238d9338-86dd-42e9-a35e-fd6a89926d43",
      "type": "istar.DependencyLink",
      "source": "75a0cb12-cc48-4772-a8dc-1a7a68d0e748",
      "target": "d5790832-0037-4a17-bd01-cb25fe03b351"
    },
    {
      "id": "e15f0afd-c5f0-494e-ac2a-f642e952155d",
      "type": "istar.DependencyLink",
      "source": "042685a6-ba2c-476e-952d-71a2fd54b690",
      "target": "75a0cb12-cc48-4772-a8dc-1a7a68d0e748"
    },
    {
      "id": "466bc211-e662-4ae2-a920-429fe2fa6ff0",
      "type": "istar.DependencyLink",
      "source": "f600af98-537a-4afd-a503-3081244584b7",
      "target": "caf6a775-c3d3-4bd3-986b-af2292821f6e"
    },
    {
      "id": "3d477de4-1dd9-46b2-9488-941a1e90b776",
      "type": "istar.DependencyLink",
      "source": "7f245c34-c3b4-41e9-b55d-dbf881b5e312",
      "target": "f600af98-537a-4afd-a503-3081244584b7"
    },
    {
      "id": "1304b8f6-8e6f-496a-afc8-1bf1d8615c89",
      "type": "istar.DependencyLink",
      "source": "a7a70789-08f3-4bf1-86df-42e0ce587c3b",
      "target": "4c003ef4-85d8-42df-95f3-5a952c0667c8"
    },
    {
      "id": "65ff439c-b08a-43a5-a048-dd42ef41f007",
      "type": "istar.DependencyLink",
      "source": "1b136978-ae63-4787-aae3-6b2bfcc0e7a9",
      "target": "a7a70789-08f3-4bf1-86df-42e0ce587c3b"
    },
    {
      "id": "72731212-f246-489d-8ad7-531f55399ecd",
      "type": "istar.AndRefinementLink",
      "source": "d369d8e2-3c89-4554-8e60-d8d9438de444",
      "target": "51fada58-4736-4f5a-a6ca-095f556ab8fa"
    },
    {
      "id": "f7974c53-6494-4189-91a9-0f75f183290d",
      "type": "istar.AndRefinementLink",
      "source": "fd2f1395-c7b2-46ac-bab1-bc97d836340e",
      "target": "51fada58-4736-4f5a-a6ca-095f556ab8fa"
    },
    {
      "id": "7af90f32-58c1-4ec8-8cb8-bf3c9cea6e00",
      "type": "istar.OrRefinementLink",
      "source": "042685a6-ba2c-476e-952d-71a2fd54b690",
      "target": "d369d8e2-3c89-4554-8e60-d8d9438de444"
    },
    {
      "id": "17755e26-1b5b-49fe-80a8-bd7e83f5e1b3",
      "type": "istar.AndRefinementLink",
      "source": "4b0756eb-9f2e-415f-8d29-837a57051266",
      "target": "51fada58-4736-4f5a-a6ca-095f556ab8fa"
    },
    {
      "id": "ddc89f1c-32b2-4849-ab8e-bf735b7a6f99",
      "type": "istar.AndRefinementLink",
      "source": "1b136978-ae63-4787-aae3-6b2bfcc0e7a9",
      "target": "fd2f1395-c7b2-46ac-bab1-bc97d836340e"
    },
    {
      "id": "aca06571-3148-459d-8d98-8f18c63c0949",
      "type": "istar.AndRefinementLink",
      "source": "7f791761-499d-4f99-8550-51b2bcf9bb66",
      "target": "fd2f1395-c7b2-46ac-bab1-bc97d836340e"
    },
    {
      "id": "61c78c76-4ff1-4679-8df9-c4f553370d30",
      "type": "istar.OrRefinementLink",
      "source": "7f245c34-c3b4-41e9-b55d-dbf881b5e312",
      "target": "7f791761-499d-4f99-8550-51b2bcf9bb66"
    },
    {
      "id": "743f6a23-3578-4173-a54c-ef0e5b817731",
      "type": "istar.AndRefinementLink",
      "source": "28443267-01d0-4083-a3e8-d2af429ea0e7",
      "target": "d5790832-0037-4a17-bd01-cb25fe03b351"
    },
    {
      "id": "56649454-1a89-4884-a371-b3c804ee0b8c",
      "type": "istar.AndRefinementLink",
      "source": "f5fa1a55-ef44-4492-b4bb-84ef92a7eedb",
      "target": "d5790832-0037-4a17-bd01-cb25fe03b351"
    },
    {
      "id": "be9792e1-d0ab-4a36-a14c-211aaceb0f4f",
      "type": "istar.AndRefinementLink",
      "source": "77b2280f-3466-4a77-af12-95caa3e3b0a8",
      "target": "d5790832-0037-4a17-bd01-cb25fe03b351"
    },
    {
      "id": "593fdb7c-f107-47eb-80c3-fd180e7f73eb",
      "type": "istar.OrRefinementLink",
      "source": "c3df1858-7d39-4493-9b1f-1c111b9e7d32",
      "target": "14b68359-3340-4a94-8002-d71057842b8f"
    },
    {
      "id": "af0f871b-9753-4f26-8106-e9c3c2588aca",
      "type": "istar.OrRefinementLink",
      "source": "890383d8-6d81-4210-b5e5-b336b6e80df2",
      "target": "568ffae5-c634-4d21-9651-f7e1862bdf5a"
    },
    {
      "id": "da6b4649-79de-4a1d-b97b-efa2e0efdd2d",
      "type": "istar.OrRefinementLink",
      "source": "13d66f7a-95b1-42ac-b75e-cd5b59b2254e",
      "target": "568ffae5-c634-4d21-9651-f7e1862bdf5a"
    },
    {
      "id": "93f62cd4-2d25-4ded-a5d3-c2a80fe09ad7",
      "type": "istar.OrRefinementLink",
      "source": "cd39c513-36dc-4105-9474-dfbd5827381a",
      "target": "568ffae5-c634-4d21-9651-f7e1862bdf5a"
    },
    {
      "id": "c68b8185-bc77-4793-88a7-3db1b502bade",
      "type": "istar.IsALink",
      "source": "ef17494c-c2ac-4443-9ec3-f1f027854bf6",
      "target": "20c95a3d-78e5-4772-acf9-1775dfa4b9fb"
    },
    {
      "id": "9072eda3-ec54-4195-aaa8-a73caa534125",
      "type": "istar.IsALink",
      "source": "5030a35d-c52a-47b5-b14e-dcbc2177f711",
      "target": "20c95a3d-78e5-4772-acf9-1775dfa4b9fb"
    },
    {
      "id": "8211071b-856b-4f56-81c9-796a55c9e11f",
      "type": "istar.ParticipatesInLink",
      "source": "20c95a3d-78e5-4772-acf9-1775dfa4b9fb",
      "target": "46ac7cfe-5aba-4915-b9c4-abe32b081952"
    },
    {
      "id": "14c68418-90a3-4001-9e77-7ca8b087eefe",
      "type": "istar.OrRefinementLink",
      "source": "31fd0199-0c96-44e2-bb84-1dd5ddaf89b8",
      "target": "42fe47ea-210d-4666-a032-f1e49c944c44"
    },
    {
      "id": "13fccdd1-48e5-4e45-91e5-c25572884f65",
      "type": "istar.OrRefinementLink",
      "source": "17e057ab-352a-45fe-ad91-ae5da1dfd95d",
      "target": "2200a110-1feb-4367-904c-b220da4044ab"
    },
    {
      "id": "686b2df8-6590-4052-a8db-09942d3ff044",
      "type": "istar.ContributionLink",
      "source": "daab9595-e15f-4fa2-a140-86172debf3be",
      "target": "5b8565b9-3e04-4ddf-83be-f8272d4759fe",
      "label": "help"
    },
    {
      "id": "7e3c9524-f919-4df1-8b2a-c18a290345d8",
      "type": "istar.OrRefinementLink",
      "source": "46a65b8b-6054-464d-865c-559ec094d5de",
      "target": "d369d8e2-3c89-4554-8e60-d8d9438de444"
    },
    {
      "id": "3ff50950-e5d9-4e82-b42b-9e20578b4d9b",
      "type": "istar.OrRefinementLink",
      "source": "11cb4a3f-bd88-461e-ad4c-dd406f6de313",
      "target": "43a85846-b6c0-4b85-ad7e-3f3eaf850ed0"
    },
    {
      "id": "fe74e334-3b80-437c-a410-e16d01e124f4",
      "type": "istar.ContributionLink",
      "source": "11cb4a3f-bd88-461e-ad4c-dd406f6de313",
      "target": "af4fde85-de5a-4f56-86c1-11299c4c1550",
      "label": "help"
    },
    {
      "id": "b2cda5ff-11a2-4c04-b4b8-a6b73a90b1fc",
      "type": "istar.ContributionLink",
      "source": "7f791761-499d-4f99-8550-51b2bcf9bb66",
      "target": "1276f5db-8b04-42b4-8674-68d5de64c53e",
      "label": "make"
    },
    {
      "id": "1b826105-4612-4e4c-ad67-73222139006a",
      "type": "istar.ContributionLink",
      "source": "46a65b8b-6054-464d-865c-559ec094d5de",
      "target": "af4fde85-de5a-4f56-86c1-11299c4c1550",
      "label": "help"
    },
    {
      "id": "aa02bb80-32f9-4b93-ac12-d7aa5e8fe349",
      "type": "istar.NeededByLink",
      "source": "94e0e481-9651-4e80-8204-3fc43bf0b140",
      "target": "1b136978-ae63-4787-aae3-6b2bfcc0e7a9"
    },
    {
      "id": "b507eeb0-3510-40c5-8d9c-213ff7e39ab0",
      "type": "istar.NeededByLink",
      "source": "686779a7-38ab-4a7d-8be6-7e8dfced9e7c",
      "target": "1b136978-ae63-4787-aae3-6b2bfcc0e7a9"
    },
    {
      "id": "53dd9cd8-2084-4d0a-8eb5-a9716c40c125",
      "type": "istar.NeededByLink",
      "source": "a13c5263-c73b-4eed-bed3-bbe717a67adf",
      "target": "1b136978-ae63-4787-aae3-6b2bfcc0e7a9"
    },
    {
      "id": "1bb1a172-0b5c-4dcf-9f06-94b75fb06629",
      "type": "istar.OrRefinementLink",
      "source": "1b01445f-604e-4b5a-9fcb-665e7b9a1a91",
      "target": "c3df1858-7d39-4493-9b1f-1c111b9e7d32"
    },
    {
      "id": "c8ed42c3-20c8-4a69-8b41-80e300df8f66",
      "type": "istar.ContributionLink",
      "source": "2aafe392-cafe-4264-946c-35f0bb22db35",
      "target": "3a32baa4-7755-4328-bc33-1eb6b8246bc5",
      "label": "help"
    },
    {
      "id": "4d8af410-c2c9-4065-9739-21678ca34b0a",
      "type": "istar.OrRefinementLink",
      "source": "2aafe392-cafe-4264-946c-35f0bb22db35",
      "target": "1b01445f-604e-4b5a-9fcb-665e7b9a1a91"
    },
    {
      "id": "4e59bf62-cc4c-4fbf-bb4e-13879c4b3e0f",
      "type": "istar.OrRefinementLink",
      "source": "23ef9770-48a9-4000-9e96-67b0eb240fcf",
      "target": "1b01445f-604e-4b5a-9fcb-665e7b9a1a91"
    },
    {
      "id": "4d96e20b-d3b4-479b-9e91-2323db904a2a",
      "type": "istar.OrRefinementLink",
      "source": "fb554703-f95a-45e9-9fe2-97aefc140d88",
      "target": "2ded19b3-32d0-4706-bfc4-be8f0e933953"
    },
    {
      "id": "c431910e-961e-41d9-9dda-d0db48474adb",
      "type": "istar.OrRefinementLink",
      "source": "cd16f66f-046c-4b19-ad7a-0c12a866c35e",
      "target": "c8916f6b-7430-43c9-826e-9e95e7ced993"
    },
    {
      "id": "58b7599c-6d2a-44d3-9338-b66c67b6e927",
      "type": "istar.OrRefinementLink",
      "source": "77863b35-04ab-41a2-ab6f-03f03ecf14ed",
      "target": "c8916f6b-7430-43c9-826e-9e95e7ced993"
    },
    {
      "id": "a3cb66ac-7244-43ec-8fa0-7496f87b0d94",
      "type": "istar.AndRefinementLink",
      "source": "c8916f6b-7430-43c9-826e-9e95e7ced993",
      "target": "28443267-01d0-4083-a3e8-d2af429ea0e7"
    },
    {
      "id": "ce37c31d-5403-4f81-b354-359a3512c1bd",
      "type": "istar.AndRefinementLink",
      "source": "fff116f9-8032-4153-9883-c6d8b3061eca",
      "target": "28443267-01d0-4083-a3e8-d2af429ea0e7"
    },
    {
      "id": "bf9885a8-eaa5-493f-91ff-3d030e3b39f2",
      "type": "istar.AndRefinementLink",
      "source": "1030ef35-cc95-4737-a52c-28e9f02b487d",
      "target": "28443267-01d0-4083-a3e8-d2af429ea0e7"
    },
    {
      "id": "045a086e-761f-4a3f-8eca-f9d86299cd3f",
      "type": "istar.AndRefinementLink",
      "source": "b6335ff9-fad9-4cfb-9b4f-a3f48077c80d",
      "target": "f5fa1a55-ef44-4492-b4bb-84ef92a7eedb"
    },
    {
      "id": "6b7e06c9-5b7c-476e-bfd4-3f495c77952e",
      "type": "istar.AndRefinementLink",
      "source": "ff066f99-34b4-493a-8d6e-af6d2b058189",
      "target": "f5fa1a55-ef44-4492-b4bb-84ef92a7eedb"
    },
    {
      "id": "05b63374-d74c-4e10-a785-12bd26917fd1",
      "type": "istar.AndRefinementLink",
      "source": "a811a96b-e5e9-48ea-8716-453d87b463ce",
      "target": "77b2280f-3466-4a77-af12-95caa3e3b0a8"
    },
    {
      "id": "269fa52e-690c-4372-98dd-76244de65fbe",
      "type": "istar.AndRefinementLink",
      "source": "0a1b5361-2648-4902-8bb3-26e56f3a546c",
      "target": "77b2280f-3466-4a77-af12-95caa3e3b0a8"
    },
    {
      "id": "9f857303-02a6-4fa5-9f1a-d6f2705166ca",
      "type": "istar.AndRefinementLink",
      "source": "d7212cdf-d4a2-44ee-bf71-1951e3d7ffc2",
      "target": "77b2280f-3466-4a77-af12-95caa3e3b0a8"
    },
    {
      "id": "71263d64-c472-4e8b-aaf1-517363066a3a",
      "type": "istar.OrRefinementLink",
      "source": "06865706-b5f9-44b8-92d4-cf818ff0f4b4",
      "target": "a811a96b-e5e9-48ea-8716-453d87b463ce"
    },
    {
      "id": "471f7589-9005-43b1-8c5d-ac99a082c0b2",
      "type": "istar.OrRefinementLink",
      "source": "3200728b-4f29-4c19-88e7-61b52b0507dd",
      "target": "d7212cdf-d4a2-44ee-bf71-1951e3d7ffc2"
    },
    {
      "id": "59b1ae1b-0886-4497-a586-1b9221cd5ed9",
      "type": "istar.ContributionLink",
      "source": "cd16f66f-046c-4b19-ad7a-0c12a866c35e",
      "target": "d1075743-540b-400c-8cbc-e622859b1047",
      "label": "help"
    },
    {
      "id": "8e57c830-eafd-45cd-83da-633452968987",
      "type": "istar.ContributionLink",
      "source": "06865706-b5f9-44b8-92d4-cf818ff0f4b4",
      "target": "d1075743-540b-400c-8cbc-e622859b1047",
      "label": "help"
    },
    {
      "id": "22e74dbd-8852-48b9-bfb0-d9e1e87fdd5b",
      "type": "istar.ContributionLink",
      "source": "3200728b-4f29-4c19-88e7-61b52b0507dd",
      "target": "d1075743-540b-400c-8cbc-e622859b1047",
      "label": "help"
    },
    {
      "id": "1883f878-8b16-40d1-b7eb-c910213a2d20",
      "type": "istar.OrRefinementLink",
      "source": "3ebd3612-d524-4ebc-8e22-0f4baf37534c",
      "target": "f0efcdbe-2dd2-45a7-97d8-969561e8d926"
    },
    {
      "id": "0f3aa9e4-1fdd-477b-bd0b-34f036d715f7",
      "type": "istar.OrRefinementLink",
      "source": "8aa900cd-44f3-40cd-beeb-72c192afbcef",
      "target": "f0efcdbe-2dd2-45a7-97d8-969561e8d926"
    },
    {
      "id": "928343db-0ce1-4815-9d81-949c9c5bd97f",
      "type": "istar.OrRefinementLink",
      "source": "f0efcdbe-2dd2-45a7-97d8-969561e8d926",
      "target": "765d9a1c-8837-4c0a-9f73-802d7f042a60"
    },
    {
      "id": "0829a2cd-19db-465e-829d-5338977826d8",
      "type": "istar.ContributionLink",
      "source": "f3167f0b-1c4e-4e6b-9190-cedd9974f584",
      "target": "4635f975-822b-4afa-b8e9-aec762e52c7d",
      "label": "make"
    },
    {
      "id": "a5dd0d7b-bfda-43a1-8f25-18427230197e",
      "type": "istar.ContributionLink",
      "source": "daab9595-e15f-4fa2-a140-86172debf3be",
      "target": "dcf104ed-4014-4dde-85a4-baad3890ad9e",
      "label": "help"
    },
    {
      "id": "3f97342f-6a67-4ad1-b2a7-4062d38a3efa",
      "type": "istar.ContributionLink",
      "source": "adc09f5e-91b7-4f52-93c4-d19f9df4e1d0",
      "target": "dcf104ed-4014-4dde-85a4-baad3890ad9e",
      "label": "help"
    },
    {
      "id": "d49e6c0c-de2c-4c95-9421-cb3961901c17",
      "type": "istar.OrRefinementLink",
      "source": "fd512e97-5cc8-49e6-acdf-4561ce11f448",
      "target": "ee3a9136-0c41-40f6-99a6-df1c3e3085d5"
    },
    {
      "id": "83d220b4-7fe2-4e09-b0e8-2e7728c0f507",
      "type": "istar.OrRefinementLink",
      "source": "dec82c73-4f26-414a-bde5-164dfe085a96",
      "target": "ee3a9136-0c41-40f6-99a6-df1c3e3085d5"
    },
    {
      "id": "317490fe-47ff-4cdc-9e95-88996cb792b9",
      "type": "istar.ContributionLink",
      "source": "fd512e97-5cc8-49e6-acdf-4561ce11f448",
      "target": "2acdd63a-85c6-4f51-b2bd-580e4270b61b",
      "label": "help"
    },
    {
      "id": "964c8a81-54cf-4296-9eb4-f214f88d2f27",
      "type": "istar.ContributionLink",
      "source": "31fd0199-0c96-44e2-bb84-1dd5ddaf89b8",
      "target": "2acdd63a-85c6-4f51-b2bd-580e4270b61b",
      "label": "help"
    },
    {
      "id": "0169d55a-2818-4154-8559-5bd72a3bc4ee",
      "type": "istar.ContributionLink",
      "source": "dec82c73-4f26-414a-bde5-164dfe085a96",
      "target": "2acdd63a-85c6-4f51-b2bd-580e4270b61b",
      "label": "hurt"
    },
    {
      "id": "f11b3cf7-4ff5-4872-b5cc-6293d7791720",
      "type": "istar.AndRefinementLink",
      "source": "976a3e72-eb45-42a3-ae29-9e70d3fe56ab",
      "target": "391109cb-520c-4085-a2d5-ded8426337b4"
    },
    {
      "id": "43dbf999-971f-400d-a707-18bf1c835501",
      "type": "istar.ContributionLink",
      "source": "976a3e72-eb45-42a3-ae29-9e70d3fe56ab",
      "target": "f3cb08d6-5e10-41a9-9241-79d1a9283c38",
      "label": "help"
    },
    {
      "id": "ae6c5c8f-21b2-47ef-9b44-9d8b40f1a007",
      "type": "istar.ContributionLink",
      "source": "391109cb-520c-4085-a2d5-ded8426337b4",
      "target": "0f618f59-b4dc-4065-9bac-3c477afa4bce",
      "label": "help"
    },
    {
      "id": "d0561e7e-a04e-4090-bcd3-f75029ef3140",
      "type": "istar.ContributionLink",
      "source": "391109cb-520c-4085-a2d5-ded8426337b4",
      "target": "1b3aa8b4-4d30-490f-a03f-e77a85b2afe7",
      "label": "help"
    },
    {
      "id": "5fcbd841-4e89-47ea-9c73-d047afc4e547",
      "type": "istar.ContributionLink",
      "source": "eb8c572a-5d9d-4a0c-880d-5566b9c8a911",
      "target": "5b8565b9-3e04-4ddf-83be-f8272d4759fe",
      "label": "help"
    },
    {
      "id": "95fe56ab-341b-4a8d-b43f-69ff1356f107",
      "type": "istar.ContributionLink",
      "source": "dfde0578-7fa4-44f5-9047-e3d84d2e726d",
      "target": "5b8565b9-3e04-4ddf-83be-f8272d4759fe",
      "label": "help"
    },
    {
      "id": "f5a544f7-89be-4a05-a5aa-1685e81cbd18",
      "type": "istar.ContributionLink",
      "source": "67f2dae4-7406-49c2-9760-8a79b2061e11",
      "target": "b560f7ff-b3f8-40a7-9b7d-b033d78efa9a",
      "label": "help"
    },
    {
      "id": "8c9dae98-133c-44c0-a0ab-7bd3eab641d4",
      "type": "istar.OrRefinementLink",
      "source": "67f2dae4-7406-49c2-9760-8a79b2061e11",
      "target": "69d35781-9ad3-493a-9f90-3b20725b9c2f"
    }
  ],
  "display": {
    "1b136978-ae63-4787-aae3-6b2bfcc0e7a9": {
      "width": 98.609375,
      "height": 41.84375
    },
    "f5fa1a55-ef44-4492-b4bb-84ef92a7eedb": {
      "width": 101.56594848632812,
      "height": 46.888893127441406
    },
    "77b2280f-3466-4a77-af12-95caa3e3b0a8": {
      "width": 101.56594848632812,
      "height": 46.888893127441406
    },
    "c3df1858-7d39-4493-9b1f-1c111b9e7d32": {
      "width": 96.5659408569336,
      "height": 43.888893127441406
    },
    "14b68359-3340-4a94-8002-d71057842b8f": {
      "width": 99.56594848632812,
      "height": 40.222206115722656
    },
    "568ffae5-c634-4d21-9651-f7e1862bdf5a": {
      "width": 98.5659408569336,
      "height": 45.388893127441406
    },
    "890383d8-6d81-4210-b5e5-b336b6e80df2": {
      "width": 95.5659408569336,
      "height": 38.888893127441406
    },
    "13d66f7a-95b1-42ac-b75e-cd5b59b2254e": {
      "width": 96.5659408569336,
      "height": 51.888893127441406
    },
    "cd39c513-36dc-4105-9474-dfbd5827381a": {
      "width": 97.5659408569336,
      "height": 40.888893127441406
    },
    "765d9a1c-8837-4c0a-9f73-802d7f042a60": {
      "width": 94.5659408569336,
      "height": 42.888893127441406
    },
    "1030ef35-cc95-4737-a52c-28e9f02b487d": {
      "width": 106.46665954589844,
      "height": 38.016639709472656
    },
    "b6335ff9-fad9-4cfb-9b4f-a3f48077c80d": {
      "width": 109.46665954589844,
      "height": 48.016639709472656
    },
    "ff066f99-34b4-493a-8d6e-af6d2b058189": {
      "width": 100.46665954589844,
      "height": 40.016639709472656
    },
    "d1075743-540b-400c-8cbc-e622859b1047": {
      "width": 105.49815368652344,
      "height": 60.022865295410156
    },
    "ee3a9136-0c41-40f6-99a6-df1c3e3085d5": {
      "width": 97.34371948242188,
      "height": 43.222206115722656
    },
    "31fd0199-0c96-44e2-bb84-1dd5ddaf89b8": {
      "width": 126.609375,
      "height": 80.84375
    },
    "adc09f5e-91b7-4f52-93c4-d19f9df4e1d0": {
      "width": 97.66667175292969,
      "height": 40.683326721191406
    },
    "dec82c73-4f26-414a-bde5-164dfe085a96": {
      "width": 126.23338317871094,
      "height": 42.683326721191406
    },
    "1b3aa8b4-4d30-490f-a03f-e77a85b2afe7": {
      "width": 97.76219177246094,
      "height": 54.689002990722656
    },
    "dfde0578-7fa4-44f5-9047-e3d84d2e726d": {
      "width": 106.73338317871094,
      "height": 41.683326721191406
    },
    "eb8c572a-5d9d-4a0c-880d-5566b9c8a911": {
      "width": 111.73338317871094,
      "height": 51.683326721191406
    },
    "67f2dae4-7406-49c2-9760-8a79b2061e11": {
      "width": 144.73338317871094,
      "height": 58.683326721191406
    },
    "69d35781-9ad3-493a-9f90-3b20725b9c2f": {
      "width": 113.73338317871094,
      "height": 46.683326721191406
    },
    "238d9338-86dd-42e9-a35e-fd6a89926d43": {
      "vertices": [
        {
          "x": 609,
          "y": 456
        }
      ]
    },
    "e15f0afd-c5f0-494e-ac2a-f642e952155d": {
      "vertices": [
        {
          "x": 906,
          "y": 453
        }
      ]
    },
    "fe74e334-3b80-437c-a410-e16d01e124f4": {
      "vertices": [
        {
          "x": 1148,
          "y": 698
        }
      ]
    },
    "1b826105-4612-4e4c-ad67-73222139006a": {
      "vertices": [
        {
          "x": 1142,
          "y": 659
        }
      ]
    },
    "59b1ae1b-0886-4497-a586-1b9221cd5ed9": {
      "vertices": [
        {
          "x": 619,
          "y": 705
        }
      ]
    },
    "22e74dbd-8852-48b9-bfb0-d9e1e87fdd5b": {
      "vertices": [
        {
          "x": 1115,
          "y": 705
        }
      ]
    },
    "5030a35d-c52a-47b5-b14e-dcbc2177f711": {
      "collapsed": true
    },
    "ef17494c-c2ac-4443-9ec3-f1f027854bf6": {
      "collapsed": true
    },
    "4c003ef4-85d8-42df-95f3-5a952c0667c8": {
      "collapsed": true
    },
    "caf6a775-c3d3-4bd3-986b-af2292821f6e": {
      "collapsed": true
    },
    "46ac7cfe-5aba-4915-b9c4-abe32b081952": {
      "collapsed": true
    },
    "20c95a3d-78e5-4772-acf9-1775dfa4b9fb": {
      "collapsed": true
    }
  },
  "tool": "pistar.2.1.0",
  "istar": "2.0",
  "saveDate": "Fri, 28 Jan 2022 19:45:54 GMT",
  "diagram": {
    "width": 3463,
    "height": 2470,
    "name": "SalaZ",
    "customProperties": {
      "Description": ""
    }
  }
}